{ "class": "go.GraphLinksModel",
  "modelData": {"position":"-2 -43"},
  "nodeDataArray": [ 
{"text":"", "figure":"Circle", "fill":"#ecf0f1", "stroke":null, "key":-1, "loc":"100 130"},
{"text":"", "figure":"Circle", "fill":"#424242", "margin":1, "key":-4, "loc":"140 350"},
{"text":"Vybrat Dokument", "figure":"RoundedRectangle", "fill":{"class":"go.Brush", "type":"Linear", "start":{"class":"go.Spot", "x":0.5, "y":0, "offsetX":0, "offsetY":0}, "end":{"class":"go.Spot", "x":0.5, "y":1, "offsetX":0, "offsetY":0}, "colorStops":{"0":"rgb(149, 165, 166)"}}, "stroke":"rgb(236, 240, 241)", "key":-5, "loc":"270 130"},
{"text":"Vyplnit dokument", "figure":"RoundedRectangle", "fill":{"class":"go.Brush", "type":"Linear", "start":{"class":"go.Spot", "x":0.5, "y":0, "offsetX":0, "offsetY":0}, "end":{"class":"go.Spot", "x":0.5, "y":1, "offsetX":0, "offsetY":0}, "colorStops":{"0":"rgb(149, 165, 166)"}}, "stroke":"rgb(236, 240, 241)", "key":-6, "loc":"670 120"},
{"text":"ok?", "figure":"Diamond", "fill":"#ecf0f1", "key":-3, "loc":"630 260"},
{"text":"Ulozit", "figure":"RoundedRectangle", "fill":{"class":"go.Brush", "type":"Linear", "start":{"class":"go.Spot", "x":0.5, "y":0, "offsetX":0, "offsetY":0}, "end":{"class":"go.Spot", "x":0.5, "y":1, "offsetX":0, "offsetY":0}, "colorStops":{"0":"rgb(149, 165, 166)"}}, "stroke":"rgb(236, 240, 241)", "key":-8, "loc":"450 360"},
{"text":"Zobrazit hlasky", "figure":"RoundedRectangle", "fill":{"class":"go.Brush", "type":"Linear", "start":{"class":"go.Spot", "x":0.5, "y":0, "offsetX":0, "offsetY":0}, "end":{"class":"go.Spot", "x":0.5, "y":1, "offsetX":0, "offsetY":0}, "colorStops":{"0":"rgb(149, 165, 166)"}}, "stroke":"rgb(236, 240, 241)", "key":-9, "loc":"380 240"},
{"text":"Pokracovat?", "figure":"Diamond", "fill":"#ecf0f1", "key":-10, "loc":"130 240"}
 ],
  "linkDataArray": [ 
{"from":-1, "to":-5, "points":[124.16529695377793,130,134.16529695377793,130,160.99434840651122,130,160.99434840651122,130,187.8233998592445,130,197.8233998592445,130]},
{"from":-5, "to":-6, "points":[342.1766001407555,130,352.1766001407555,130,469.5973472595215,130,469.5973472595215,120,587.0180943782875,120,597.0180943782875,120]},
{"from":-6, "to":-3, "points":[670.0000000000001,139.69914805335318,670.0000000000001,149.69914805335318,670.0000000000001,183.41184972247737,630,183.41184972247737,630,217.12455139160156,630,227.12455139160156]},
{"from":-3, "to":-8, "points":[630,292.8754486083984,630,302.8754486083984,630,360,560.8556569429363,360,491.71131388587276,360,481.71131388587276,360]},
{"from":-8, "to":-4, "points":[418.2886861141273,360,408.2886861141273,360,291.2269915339526,360,291.2269915339526,350,174.16529695377793,350,164.16529695377793,350]},
{"from":-3, "to":-9, "points":[586.9369964599609,260,576.9369964599609,260,516.029595694157,260,516.029595694157,240,455.12219492835317,240,445.12219492835317,240]},
{"from":-9, "to":-10, "points":[314.87780507164683,240,304.87780507164683,240,274.9367510465656,240,274.9367510465656,240,244.99569702148432,240,234.99569702148432,240]},
{"from":-10, "to":-6, "points":[25.004302978515625,240,15.004302978515625,240,15.004302978515625,90.30085194664682,342.50215148925787,90.30085194664682,670.0000000000001,90.30085194664682,670.0000000000001,100.30085194664682]},
{"from":-10, "to":-4, "points":[130,272.8754486083984,130,282.8754486083984,130,299.3550758273102,140,299.3550758273102,140,315.83470304622205,140,325.83470304622205]}
 ]}
